[
  {
    "year": 2016,
    "count": 2,
    "collection": [
      {
        "id": 2,
        "name": "Name2",
        "speed": 200,
        "date": "2016-02-03"
      },
      {
        "id": 4,
        "name": "Name4",
        "speed": 300,
        "date": "2016-01-02"
      }
    ]
  }
]